%YAML 1.1
%TAG !u! tag:unity3d.com,2011:
--- !u!21 &2100000
Material:
  serializedVersion: 6
  m_ObjectHideFlags: 0
  m_CorrespondingSourceObject: {fileID: 0}
  m_PrefabInstance: {fileID: 0}
  m_PrefabAsset: {fileID: 0}
  m_Name: SDF_HeartBeatScreen
  m_Shader: {fileID: 4800000, guid: e759b88bc5640e44aa792c2552d17d9a, type: 3}
  m_ShaderKeywords: SDF_RAMPCOLORED_ON
  m_LightmapFlags: 4
  m_EnableInstancingVariants: 0
  m_DoubleSidedGI: 0
  m_CustomRenderQueue: -1
  stringTagMap: {}
  disabledShaderPasses: []
  m_SavedProperties:
    serializedVersion: 3
    m_TexEnvs:
    - _MainTex:
        m_Texture: {fileID: 0}
        m_Scale: {x: 1, y: 1}
        m_Offset: {x: 0, y: 0}
    - _SDFRampTex:
        m_Texture: {fileID: 2800000, guid: 732db478f76e10b4e8d88a2de44d0934, type: 3}
        m_Scale: {x: 1, y: 1}
        m_Offset: {x: 0, y: 0}
    m_Floats:
    - _BeatAmplitude: 0.445
    - _BeatPeriod: 1.6
    - _HeartBlurry: 0.06
    - _HeartDilate: 0.8
    - _LineSpacing: 0.2
    - _LineThickness: 0.001
    - _SDFRampColored: 1
    - _SDFRampOffset: 1
    - _SDFRampOffsetUnit: 0.77
    - _SDF_RAMP: 0
    m_Colors:
    - _BackgroundColor: {r: 0.9853959, g: 1, b: 0.88113207, a: 1}
    - _HeartColor: {r: 1, g: 0.35519278, b: 0.2980392, a: 1}
    - _LineParams: {r: 0.1, g: 0.005, b: 0, a: 0}
  m_BuildTextureStacks: []
